{
  "version": "0.2.0",
  "configurations": [
    {
      "preLaunchTask": "${defaultBuildTask}",
      "type": "codelldb",
      "request": "launch",
      "name": "probe_rs Server attach example",
      "cwd": "${workspaceFolder}",
      "chip": "RP2040", 
      "wireProtocol" : "Swd", 
      "consoleLogLevel" : "Debug",
      "coreConfigs": [
        {
          "coreIndex": 0,
          "programBinary": "./target/thumbv6m-none-eabi/debug/rp2040-project-template"
        }
      ],
      "env": {}
    }
  ]
}

